%YAML 1.1
%TAG !u! tag:unity3d.com,2011:
--- !u!114 &11400000
MonoBehaviour:
  m_ObjectHideFlags: 0
  m_CorrespondingSourceObject: {fileID: 0}
  m_PrefabInstance: {fileID: 0}
  m_PrefabAsset: {fileID: 0}
  m_GameObject: {fileID: 0}
  m_Enabled: 1
  m_EditorHideFlags: 0
  m_Script: {fileID: 11500000, guid: 02779788bc8142d0a84758d236104643, type: 3}
  m_Name: Inital State Of Kernodergatel DIsable Objects
  m_EditorClassIdentifier: 
  enable: 0
  objectsToSet:
  - obj_part_826
  - 6.obj_part_61
  - 6.obj_part_67
  - 6.7.obj_part_118
  - 6.7.obj_part_119
  - 6.7.obj_part_120
  - 12.group10
