%YAML 1.1
%TAG !u! tag:unity3d.com,2011:
--- !u!114 &11400000
MonoBehaviour:
  m_ObjectHideFlags: 0
  m_CorrespondingSourceObject: {fileID: 0}
  m_PrefabInstance: {fileID: 0}
  m_PrefabAsset: {fileID: 0}
  m_GameObject: {fileID: 0}
  m_Enabled: 1
  m_EditorHideFlags: 0
  m_Script: {fileID: 11500000, guid: c05f969228e64c9281efe16854cd6f64, type: 3}
  m_Name: Play Audio Clip Track 3
  m_EditorClassIdentifier: 
  audioSourceName: Main
  clipToPlay: {fileID: 8300000, guid: 87ae453da64c71a48be4f2f9fafd49e6, type: 3}
