%YAML 1.1
%TAG !u! tag:unity3d.com,2011:
--- !u!114 &11400000
MonoBehaviour:
  m_ObjectHideFlags: 0
  m_CorrespondingSourceObject: {fileID: 0}
  m_PrefabInstance: {fileID: 0}
  m_PrefabAsset: {fileID: 0}
  m_GameObject: {fileID: 0}
  m_Enabled: 1
  m_EditorHideFlags: 0
  m_Script: {fileID: 11500000, guid: bbf421777c8f480b8b9bab54c319e7ca, type: 3}
  m_Name: Overview SetMaterials obj_part_4 Finalizing
  m_EditorClassIdentifier: 
  targetObjectName: obj_part_4
  materials:
  - {fileID: 2100000, guid: c58c6f5dde987244f959bbe80489db26, type: 2}
