%YAML 1.1
%TAG !u! tag:unity3d.com,2011:
--- !u!114 &11400000
MonoBehaviour:
  m_ObjectHideFlags: 0
  m_CorrespondingSourceObject: {fileID: 0}
  m_PrefabInstance: {fileID: 0}
  m_PrefabAsset: {fileID: 0}
  m_GameObject: {fileID: 0}
  m_Enabled: 1
  m_EditorHideFlags: 0
  m_Script: {fileID: 11500000, guid: 373c75e6ede87e14c9bf71383d09fd8d, type: 3}
  m_Name: Overview Sub2 PlayAudioAndSetMaterialsByTime Track 15
  m_EditorClassIdentifier: 
  timeInfoKeys:
  - time: 7
    targetObjectName: obj_part_38
    materials:
    - {fileID: 2100000, guid: 0ea82b43dbe1eff4e90777ac522422d3, type: 2}
    - {fileID: 2100000, guid: 97f2ea8c1350e0249b94352d7bf3cc65, type: 2}
    - {fileID: 2100000, guid: 16ba9a73c10966145b2ed7bb24309d49, type: 2}
    - {fileID: 2100000, guid: 8eb2c00afc5356a48bbfd27aa7d3ea4e, type: 2}
    - {fileID: 2100000, guid: 4ca5a2c67662c15489683fdc77470af5, type: 2}
  - time: 8
    targetObjectName: obj_part_38
    materials:
    - {fileID: 2100000, guid: d61da9f8b4bb23e48a4d5ce07af2e434, type: 2}
    - {fileID: 2100000, guid: 8aeb0d5b2152c0241a09d5f0459c9f44, type: 2}
    - {fileID: 2100000, guid: 5bdfa46e83ae94145b2009d3dbc09fb7, type: 2}
    - {fileID: 2100000, guid: 79525f64516b82c4fb0b0a173777a067, type: 2}
    - {fileID: 2100000, guid: c58c6f5dde987244f959bbe80489db26, type: 2}
  - time: 8
    targetObjectName: 12.15.17.kern.transform25
    materials:
    - {fileID: 2100000, guid: 00c430ba605abbc4792364876d152846, type: 2}
  - time: 10
    targetObjectName: 12.15.17.kern.transform25
    materials:
    - {fileID: 2100000, guid: da80686fa86e77743ba7b26ea7996c4a, type: 2}
  audioSourceName: Main
  clipToPlay: {fileID: 8300000, guid: 458dc2b9b7490c34e958d385a692ce61, type: 3}
