%YAML 1.1
%TAG !u! tag:unity3d.com,2011:
--- !u!114 &11400000
MonoBehaviour:
  m_ObjectHideFlags: 0
  m_CorrespondingSourceObject: {fileID: 0}
  m_PrefabInstance: {fileID: 0}
  m_PrefabAsset: {fileID: 0}
  m_GameObject: {fileID: 0}
  m_Enabled: 1
  m_EditorHideFlags: 0
  m_Script: {fileID: 11500000, guid: 373c75e6ede87e14c9bf71383d09fd8d, type: 3}
  m_Name: Overview Sub4 PlayAudioAndSetMaterialsByTime Track 21
  m_EditorClassIdentifier: 
  timeInfoKeys:
  - time: 2
    targetObjectName: obj_part_4
    materials:
    - {fileID: 2100000, guid: 4ca5a2c67662c15489683fdc77470af5, type: 2}
  - time: 12
    targetObjectName: obj_part_4
    materials:
    - {fileID: 2100000, guid: c58c6f5dde987244f959bbe80489db26, type: 2}
  audioSourceName: Left
  clipToPlay: {fileID: 8300000, guid: b62cd3e3ded0fcb4eaecbbd0d0fdeeac, type: 3}
