%YAML 1.1
%TAG !u! tag:unity3d.com,2011:
--- !u!114 &11400000
MonoBehaviour:
  m_ObjectHideFlags: 0
  m_CorrespondingSourceObject: {fileID: 0}
  m_PrefabInstance: {fileID: 0}
  m_PrefabAsset: {fileID: 0}
  m_GameObject: {fileID: 0}
  m_Enabled: 1
  m_EditorHideFlags: 0
  m_Script: {fileID: 11500000, guid: 4ede21ef2b6dff44d8c954bf2ede2d04, type: 3}
  m_Name: Overview Teleport Rig To Initial
  m_EditorClassIdentifier: 
  rigGoName: XR Rig
  targetTeleportGoName: Overview Teleport 1
