%YAML 1.1
%TAG !u! tag:unity3d.com,2011:
--- !u!114 &11400000
MonoBehaviour:
  m_ObjectHideFlags: 0
  m_CorrespondingSourceObject: {fileID: 0}
  m_PrefabInstance: {fileID: 0}
  m_PrefabAsset: {fileID: 0}
  m_GameObject: {fileID: 0}
  m_Enabled: 1
  m_EditorHideFlags: 0
  m_Script: {fileID: 11500000, guid: 373c75e6ede87e14c9bf71383d09fd8d, type: 3}
  m_Name: Overview Sub3 PlayAudioAndSetMaterialsByTime Track 19
  m_EditorClassIdentifier: 
  audioSourceName: Left
  clipToPlay: {fileID: 8300000, guid: 2c7ed216ada6ee7438f9e25989a9e7ff, type: 3}
  timeInfoKeys:
  - time: 2.5
    targetObjectName: obj_part_6
    materials:
    - {fileID: 2100000, guid: 4ca5a2c67662c15489683fdc77470af5, type: 2}
    - {fileID: 2100000, guid: 97a2760e0f80b4943a526ff130238417, type: 2}
    - {fileID: 2100000, guid: 1745f6ce6ba5ebb48a1b3e1650edd665, type: 2}
    - {fileID: 2100000, guid: 97f2ea8c1350e0249b94352d7bf3cc65, type: 2}
    - {fileID: 2100000, guid: 8eb2c00afc5356a48bbfd27aa7d3ea4e, type: 2}
  - time: 4.5
    targetObjectName: obj_part_6
    materials:
    - {fileID: 2100000, guid: c58c6f5dde987244f959bbe80489db26, type: 2}
    - {fileID: 2100000, guid: 9f3ebc8949553ff4081e59946f53d799, type: 2}
    - {fileID: 2100000, guid: c1d37c029a8cd23469248aab69fca419, type: 2}
    - {fileID: 2100000, guid: 8aeb0d5b2152c0241a09d5f0459c9f44, type: 2}
    - {fileID: 2100000, guid: 79525f64516b82c4fb0b0a173777a067, type: 2}
  - time: 2.5
    targetObjectName: obj_part_42
    materials:
    - {fileID: 2100000, guid: 97f2ea8c1350e0249b94352d7bf3cc65, type: 2}
    - {fileID: 2100000, guid: 0ea82b43dbe1eff4e90777ac522422d3, type: 2}
  - time: 4.5
    targetObjectName: obj_part_42
    materials:
    - {fileID: 2100000, guid: 8aeb0d5b2152c0241a09d5f0459c9f44, type: 2}
    - {fileID: 2100000, guid: d61da9f8b4bb23e48a4d5ce07af2e434, type: 2}
  - time: 2.5
    targetObjectName: obj_part_21
    materials:
    - {fileID: 2100000, guid: de88a1bd67f12f44fa92e9f7c248a56b, type: 2}
    - {fileID: 2100000, guid: 5240ef46ef2fbf746990995962eec7bc, type: 2}
  - time: 4.5
    targetObjectName: obj_part_21
    materials:
    - {fileID: 2100000, guid: c94b7e3d70162174cae6b55d19c90233, type: 2}
    - {fileID: 2100000, guid: d6e0aa2a3a9bc7b4dbe3de0c44b32b40, type: 2}
  - time: 2.5
    targetObjectName: obj_part_22
    materials:
    - {fileID: 2100000, guid: de88a1bd67f12f44fa92e9f7c248a56b, type: 2}
    - {fileID: 2100000, guid: 16ba9a73c10966145b2ed7bb24309d49, type: 2}
    - {fileID: 2100000, guid: 5240ef46ef2fbf746990995962eec7bc, type: 2}
  - time: 4.5
    targetObjectName: obj_part_22
    materials:
    - {fileID: 2100000, guid: c94b7e3d70162174cae6b55d19c90233, type: 2}
    - {fileID: 2100000, guid: 5bdfa46e83ae94145b2009d3dbc09fb7, type: 2}
    - {fileID: 2100000, guid: d6e0aa2a3a9bc7b4dbe3de0c44b32b40, type: 2}
  - time: 2.5
    targetObjectName: obj_part_1
    materials:
    - {fileID: 2100000, guid: 97f2ea8c1350e0249b94352d7bf3cc65, type: 2}
    - {fileID: 2100000, guid: f449980f1fffd964789b32187bead025, type: 2}
  - time: 4.5
    targetObjectName: obj_part_1
    materials:
    - {fileID: 2100000, guid: 8aeb0d5b2152c0241a09d5f0459c9f44, type: 2}
    - {fileID: 2100000, guid: f79928c3b1b46d04c9f09d658c575192, type: 2}
  - time: 5
    targetObjectName: obj_part_24
    materials:
    - {fileID: 2100000, guid: de88a1bd67f12f44fa92e9f7c248a56b, type: 2}
    - {fileID: 2100000, guid: 97f2ea8c1350e0249b94352d7bf3cc65, type: 2}
    - {fileID: 2100000, guid: 5240ef46ef2fbf746990995962eec7bc, type: 2}
  - time: 7
    targetObjectName: obj_part_24
    materials:
    - {fileID: 2100000, guid: c94b7e3d70162174cae6b55d19c90233, type: 2}
    - {fileID: 2100000, guid: 8aeb0d5b2152c0241a09d5f0459c9f44, type: 2}
    - {fileID: 2100000, guid: d6e0aa2a3a9bc7b4dbe3de0c44b32b40, type: 2}
  - time: 5
    targetObjectName: obj_part_25
    materials:
    - {fileID: 2100000, guid: de88a1bd67f12f44fa92e9f7c248a56b, type: 2}
    - {fileID: 2100000, guid: 0ea82b43dbe1eff4e90777ac522422d3, type: 2}
    - {fileID: 2100000, guid: 97f2ea8c1350e0249b94352d7bf3cc65, type: 2}
    - {fileID: 2100000, guid: f449980f1fffd964789b32187bead025, type: 2}
  - time: 7
    targetObjectName: obj_part_25
    materials:
    - {fileID: 2100000, guid: c94b7e3d70162174cae6b55d19c90233, type: 2}
    - {fileID: 2100000, guid: d61da9f8b4bb23e48a4d5ce07af2e434, type: 2}
    - {fileID: 2100000, guid: 8aeb0d5b2152c0241a09d5f0459c9f44, type: 2}
    - {fileID: 2100000, guid: f79928c3b1b46d04c9f09d658c575192, type: 2}
  - time: 5
    targetObjectName: obj_part_7
    materials:
    - {fileID: 2100000, guid: 0ea82b43dbe1eff4e90777ac522422d3, type: 2}
    - {fileID: 2100000, guid: 376c70d4cba7f754c9b5b6163fe62ce3, type: 2}
  - time: 7
    targetObjectName: obj_part_7
    materials:
    - {fileID: 2100000, guid: d61da9f8b4bb23e48a4d5ce07af2e434, type: 2}
    - {fileID: 2100000, guid: 8cca637e91f24d34291f1e97165125f6, type: 2}
  - time: 5
    targetObjectName: Gas_analyzer
    materials:
    - {fileID: 2100000, guid: 7244b56868d68384198c1b7aa3126f92, type: 2}
  - time: 7
    targetObjectName: Gas_analyzer
    materials:
    - {fileID: 2100000, guid: cf766a0348258984d9081207713efa83, type: 2}
  resetOnStop: 1
