%YAML 1.1
%TAG !u! tag:unity3d.com,2011:
--- !u!114 &11400000
MonoBehaviour:
  m_ObjectHideFlags: 0
  m_CorrespondingSourceObject: {fileID: 0}
  m_PrefabInstance: {fileID: 0}
  m_PrefabAsset: {fileID: 0}
  m_GameObject: {fileID: 0}
  m_Enabled: 1
  m_EditorHideFlags: 0
  m_Script: {fileID: 11500000, guid: 373c75e6ede87e14c9bf71383d09fd8d, type: 3}
  m_Name: Interactive PlayAudioAndSetMaterialsByTime Track 46
  m_EditorClassIdentifier: 
  timeInfoKeys:
  - time: 1
    targetObjectName: kernodergatel_low_Unity
    materials:
    - {fileID: 2100000, guid: 00c430ba605abbc4792364876d152846, type: 2}
  - time: 10
    targetObjectName: kernodergatel_low_Unity
    materials:
    - {fileID: 2100000, guid: da80686fa86e77743ba7b26ea7996c4a, type: 2}
  audioSourceName: Main
  clipToPlay: {fileID: 8300000, guid: d7867829a6726164a8a1b5ab7775fc84, type: 3}
  resetOnStop: 1
