%YAML 1.1
%TAG !u! tag:unity3d.com,2011:
--- !u!114 &11400000
MonoBehaviour:
  m_ObjectHideFlags: 0
  m_CorrespondingSourceObject: {fileID: 0}
  m_PrefabInstance: {fileID: 0}
  m_PrefabAsset: {fileID: 0}
  m_GameObject: {fileID: 0}
  m_Enabled: 1
  m_EditorHideFlags: 0
  m_Script: {fileID: 11500000, guid: 02779788bc8142d0a84758d236104643, type: 3}
  m_Name: Interactive Step1.1 Set Objects Enabled Step
  m_EditorClassIdentifier: 
  enable: 1
  objectsToSet:
  - halatToUnity
  - kask2_low
  - gloves_Unity
