%YAML 1.1
%TAG !u! tag:unity3d.com,2011:
--- !u!114 &11400000
MonoBehaviour:
  m_ObjectHideFlags: 0
  m_CorrespondingSourceObject: {fileID: 0}
  m_PrefabInstance: {fileID: 0}
  m_PrefabAsset: {fileID: 0}
  m_GameObject: {fileID: 0}
  m_Enabled: 1
  m_EditorHideFlags: 0
  m_Script: {fileID: 11500000, guid: ec5138544a171eb4ea88dbf5f8287cbb, type: 3}
  m_Name: Interactive Step2.1 Set Hoverable Grabable Step
  m_EditorClassIdentifier: 
  hoverable: 1
  grabable: 1
  objectsToSet:
  - procladka_low_Unity
