%YAML 1.1
%TAG !u! tag:unity3d.com,2011:
--- !u!114 &11400000
MonoBehaviour:
  m_ObjectHideFlags: 0
  m_CorrespondingSourceObject: {fileID: 0}
  m_PrefabInstance: {fileID: 0}
  m_PrefabAsset: {fileID: 0}
  m_GameObject: {fileID: 0}
  m_Enabled: 1
  m_EditorHideFlags: 0
  m_Script: {fileID: 11500000, guid: b0ec2e27e9f21fc4492d45b149234c04, type: 3}
  m_Name: Interactive Play Bolt 8 Anim Step
  m_EditorClassIdentifier: 
  targetGameObjectName: boltToUnity 8
  clipToPlay: {fileID: 7400000, guid: 67c7fb0d4b81b764aa77a538be46a21b, type: 2}
