%YAML 1.1
%TAG !u! tag:unity3d.com,2011:
--- !u!114 &11400000
MonoBehaviour:
  m_ObjectHideFlags: 0
  m_CorrespondingSourceObject: {fileID: 0}
  m_PrefabInstance: {fileID: 0}
  m_PrefabAsset: {fileID: 0}
  m_GameObject: {fileID: 0}
  m_Enabled: 1
  m_EditorHideFlags: 0
  m_Script: {fileID: 11500000, guid: eb6d5cd7a96149b2846c265c766908ef, type: 3}
  m_Name: Interactive PlayAudioAndSetMaterialSetByTime 51
  m_EditorClassIdentifier: 
  audioSourceName: Main
  clipToPlay: {fileID: 8300000, guid: 33926fae42ac70f4d9f03aff5dec848b, type: 3}
  timeInfoKeys:
  - time: 5
    targetObjectName: step3.procladka_low_Unity
    setIndex: 2
  - time: 6
    targetObjectName: step3.procladka_low_Unity
    setIndex: 0
  - time: 7
    targetObjectName: obj_part_40
    setIndex: 2
  - time: 8
    targetObjectName: obj_part_40
    setIndex: 0
  resetToZeroOnStop: 1
